test without lock ( WF snapshot )
  1 Writer Threads: Reader Scanned 421894245, and Writer Updated 390159590
  2 Writer Threads: Reader Scanned 265848730, and Writer Updated 428975230
  3 Writer Threads: Reader Scanned 156527671, and Writer Updated 430287275
  4 Writer Threads: Reader Scanned 88741089, and Writer Updated 351531322
  5 Writer Threads: Reader Scanned 59496185, and Writer Updated 284543369
  6 Writer Threads: Reader Scanned 41844168, and Writer Updated 243730023
  7 Writer Threads: Reader Scanned 31798662, and Writer Updated 215794520
  8 Writer Threads: Reader Scanned 20903676, and Writer Updated 158887519
  9 Writer Threads: Reader Scanned 18242838, and Writer Updated 162071556
 10 Writer Threads: Reader Scanned 11473351, and Writer Updated 104956356
 11 Writer Threads: Reader Scanned 11276017, and Writer Updated 121953627
 12 Writer Threads: Reader Scanned 6535203, and Writer Updated 70935673
 13 Writer Threads: Reader Scanned 7542860, and Writer Updated 96351024
 14 Writer Threads: Reader Scanned 6987434, and Writer Updated 96471362
 15 Writer Threads: Reader Scanned 5651888, and Writer Updated 86671927
 16 Writer Threads: Reader Scanned 4658984, and Writer Updated 73681763
 17 Writer Threads: Reader Scanned 3860849, and Writer Updated 66937903
 18 Writer Threads: Reader Scanned 3320013, and Writer Updated 59162963
 19 Writer Threads: Reader Scanned 2962806, and Writer Updated 57301938
 20 Writer Threads: Reader Scanned 2182071, and Writer Updated 42184598
 21 Writer Threads: Reader Scanned 2172540, and Writer Updated 49077628
 22 Writer Threads: Reader Scanned 1958881, and Writer Updated 43060612
 23 Writer Threads: Reader Scanned 1748670, and Writer Updated 38506883
 24 Writer Threads: Reader Scanned 1443853, and Writer Updated 34265573
 25 Writer Threads: Reader Scanned 1294439, and Writer Updated 34159749
 26 Writer Threads: Reader Scanned 1180620, and Writer Updated 30931277
 27 Writer Threads: Reader Scanned 1247545, and Writer Updated 32325771
 28 Writer Threads: Reader Scanned 1111161, and Writer Updated 28669534
 29 Writer Threads: Reader Scanned 975700, and Writer Updated 27271675
 30 Writer Threads: Reader Scanned 864088, and Writer Updated 25141929
 31 Writer Threads: Reader Scanned 807399, and Writer Updated 25408532
 32 Writer Threads: Reader Scanned 728820, and Writer Updated 22505422
 33 Writer Threads: Reader Scanned 604773, and Writer Updated 21786097
 34 Writer Threads: Reader Scanned 616230, and Writer Updated 21462229
 35 Writer Threads: Reader Scanned 600897, and Writer Updated 20826665
 36 Writer Threads: Reader Scanned 437967, and Writer Updated 17933143
 37 Writer Threads: Reader Scanned 498008, and Writer Updated 18341999
 38 Writer Threads: Reader Scanned 494600, and Writer Updated 17016738
 39 Writer Threads: Reader Scanned 388022, and Writer Updated 16061776
 40 Writer Threads: Reader Scanned 413908, and Writer Updated 15332438
 41 Writer Threads: Reader Scanned 367197, and Writer Updated 14327949
 42 Writer Threads: Reader Scanned 273682, and Writer Updated 12804306
 43 Writer Threads: Reader Scanned 282387, and Writer Updated 11797222
 44 Writer Threads: Reader Scanned 278141, and Writer Updated 12388988
 45 Writer Threads: Reader Scanned 263854, and Writer Updated 11997403
 46 Writer Threads: Reader Scanned 241451, and Writer Updated 11700142
 47 Writer Threads: Reader Scanned 249054, and Writer Updated 11202387
 48 Writer Threads: Reader Scanned 218205, and Writer Updated 10543330
 49 Writer Threads: Reader Scanned 201488, and Writer Updated 10290764
 50 Writer Threads: Reader Scanned 190962, and Writer Updated 9943536
 51 Writer Threads: Reader Scanned 187209, and Writer Updated 9587229
 52 Writer Threads: Reader Scanned 171759, and Writer Updated 9073336
 53 Writer Threads: Reader Scanned 180444, and Writer Updated 8923334
 54 Writer Threads: Reader Scanned 154673, and Writer Updated 8592947
 55 Writer Threads: Reader Scanned 160783, and Writer Updated 8380859
 56 Writer Threads: Reader Scanned 147206, and Writer Updated 7878287
 57 Writer Threads: Reader Scanned 137073, and Writer Updated 7504842
 58 Writer Threads: Reader Scanned 121283, and Writer Updated 7144531
 59 Writer Threads: Reader Scanned 120402, and Writer Updated 7035389
 60 Writer Threads: Reader Scanned 118067, and Writer Updated 6800344
 61 Writer Threads: Reader Scanned 117842, and Writer Updated 6483025
 62 Writer Threads: Reader Scanned 92794, and Writer Updated 6060601
 63 Writer Threads: Reader Scanned 89529, and Writer Updated 5778634
 64 Writer Threads: Reader Scanned 99396, and Writer Updated 5833580
 65 Writer Threads: Reader Scanned 88702, and Writer Updated 5657076
 66 Writer Threads: Reader Scanned 81841, and Writer Updated 5592492
 67 Writer Threads: Reader Scanned 80713, and Writer Updated 5407750
 68 Writer Threads: Reader Scanned 85441, and Writer Updated 5266616
 69 Writer Threads: Reader Scanned 63072, and Writer Updated 4788306
 70 Writer Threads: Reader Scanned 73645, and Writer Updated 4978471
 71 Writer Threads: Reader Scanned 68559, and Writer Updated 4732932
 72 Writer Threads: Reader Scanned 61205, and Writer Updated 4576963
 73 Writer Threads: Reader Scanned 60988, and Writer Updated 4484096
 74 Writer Threads: Reader Scanned 60084, and Writer Updated 4452132
 75 Writer Threads: Reader Scanned 55256, and Writer Updated 4254176
 76 Writer Threads: Reader Scanned 53469, and Writer Updated 4164527
 77 Writer Threads: Reader Scanned 49462, and Writer Updated 4021982
 78 Writer Threads: Reader Scanned 51702, and Writer Updated 3975440
 79 Writer Threads: Reader Scanned 48699, and Writer Updated 3847346
 80 Writer Threads: Reader Scanned 44413, and Writer Updated 3735289
 81 Writer Threads: Reader Scanned 46248, and Writer Updated 3636274
 82 Writer Threads: Reader Scanned 42175, and Writer Updated 3435681
 83 Writer Threads: Reader Scanned 41950, and Writer Updated 3466878
 84 Writer Threads: Reader Scanned 38736, and Writer Updated 3354506
 85 Writer Threads: Reader Scanned 40322, and Writer Updated 3275478
 86 Writer Threads: Reader Scanned 36706, and Writer Updated 3214156
 87 Writer Threads: Reader Scanned 35168, and Writer Updated 3147199
 88 Writer Threads: Reader Scanned 37506, and Writer Updated 3050905
 89 Writer Threads: Reader Scanned 34218, and Writer Updated 2949267
 90 Writer Threads: Reader Scanned 35231, and Writer Updated 2941714
 91 Writer Threads: Reader Scanned 33080, and Writer Updated 2907132
 92 Writer Threads: Reader Scanned 32508, and Writer Updated 2845252
 93 Writer Threads: Reader Scanned 28342, and Writer Updated 2511336
 94 Writer Threads: Reader Scanned 29142, and Writer Updated 2749781
 95 Writer Threads: Reader Scanned 28191, and Writer Updated 2707046
 96 Writer Threads: Reader Scanned 29332, and Writer Updated 2623267
 97 Writer Threads: Reader Scanned 25448, and Writer Updated 2555278
 98 Writer Threads: Reader Scanned 25067, and Writer Updated 2491827
 99 Writer Threads: Reader Scanned 23936, and Writer Updated 2423622
100 Writer Threads: Reader Scanned 22855, and Writer Updated 2318399

test with lock ( Sec snapshot )
  1 Writer Threads: Reader Scanned 299137209, and Writer Updated 278091982
  2 Writer Threads: Reader Scanned 163425333, and Writer Updated 309852479
  3 Writer Threads: Reader Scanned 170872747, and Writer Updated 722069110
  4 Writer Threads: Reader Scanned 157503176, and Writer Updated 910006682
  5 Writer Threads: Reader Scanned 129233817, and Writer Updated 781866264
  6 Writer Threads: Reader Scanned 116043271, and Writer Updated 938199176
  7 Writer Threads: Reader Scanned 106748059, and Writer Updated 1009037698
  8 Writer Threads: Reader Scanned 109745455, and Writer Updated 1248041878
  9 Writer Threads: Reader Scanned 86322320, and Writer Updated 1373736192
 10 Writer Threads: Reader Scanned 76904900, and Writer Updated 1541908411
 11 Writer Threads: Reader Scanned 66079421, and Writer Updated 1660641408
 12 Writer Threads: Reader Scanned 52435195, and Writer Updated 1821079823
 13 Writer Threads: Reader Scanned 48062486, and Writer Updated 1835326406
 14 Writer Threads: Reader Scanned 56364549, and Writer Updated 1819794680
 15 Writer Threads: Reader Scanned 50351600, and Writer Updated 1863466039
 16 Writer Threads: Reader Scanned 51919823, and Writer Updated 1838206029
 17 Writer Threads: Reader Scanned 43922342, and Writer Updated 1859724930
 18 Writer Threads: Reader Scanned 30317461, and Writer Updated 1824780861
 19 Writer Threads: Reader Scanned 32568425, and Writer Updated 1789290441
 20 Writer Threads: Reader Scanned 28115058, and Writer Updated 1761982995
 21 Writer Threads: Reader Scanned 26178337, and Writer Updated 1684280301
 22 Writer Threads: Reader Scanned 25508037, and Writer Updated 1647501027
 23 Writer Threads: Reader Scanned 25895924, and Writer Updated 1621521621
 24 Writer Threads: Reader Scanned 21685628, and Writer Updated 1391031213
 25 Writer Threads: Reader Scanned 21574005, and Writer Updated 1553297330
 26 Writer Threads: Reader Scanned 21564285, and Writer Updated 1507143404
 27 Writer Threads: Reader Scanned 19341624, and Writer Updated 1472881580
 28 Writer Threads: Reader Scanned 20694679, and Writer Updated 1399075738
 29 Writer Threads: Reader Scanned 20583250, and Writer Updated 1327116444
 30 Writer Threads: Reader Scanned 18437177, and Writer Updated 1294510300
 31 Writer Threads: Reader Scanned 17486542, and Writer Updated 1282766006
 32 Writer Threads: Reader Scanned 17026706, and Writer Updated 1221264390
 33 Writer Threads: Reader Scanned 17531326, and Writer Updated 1195677091
 34 Writer Threads: Reader Scanned 15662676, and Writer Updated 1174728172
 35 Writer Threads: Reader Scanned 15531817, and Writer Updated 1139257075
 36 Writer Threads: Reader Scanned 16398452, and Writer Updated 1123545655
 37 Writer Threads: Reader Scanned 15828577, and Writer Updated 1101471338
 38 Writer Threads: Reader Scanned 16098856, and Writer Updated 1053722064
 39 Writer Threads: Reader Scanned 14629070, and Writer Updated 1052996082
 40 Writer Threads: Reader Scanned 13350261, and Writer Updated 1028384857
 41 Writer Threads: Reader Scanned 14136224, and Writer Updated 1017618107
 42 Writer Threads: Reader Scanned 13007100, and Writer Updated 1015240820
 43 Writer Threads: Reader Scanned 12845329, and Writer Updated 990595053
 44 Writer Threads: Reader Scanned 11151484, and Writer Updated 992563324
 45 Writer Threads: Reader Scanned 11647333, and Writer Updated 996690169
 46 Writer Threads: Reader Scanned 10538520, and Writer Updated 980167431
 47 Writer Threads: Reader Scanned 10579868, and Writer Updated 977620653
 48 Writer Threads: Reader Scanned 9068994, and Writer Updated 967307195
 49 Writer Threads: Reader Scanned 9463551, and Writer Updated 947752471
 50 Writer Threads: Reader Scanned 8921396, and Writer Updated 961448492
 51 Writer Threads: Reader Scanned 8843493, and Writer Updated 949350676
 52 Writer Threads: Reader Scanned 7695349, and Writer Updated 949639348
 53 Writer Threads: Reader Scanned 8089824, and Writer Updated 956009065
 54 Writer Threads: Reader Scanned 6609772, and Writer Updated 892507387
 55 Writer Threads: Reader Scanned 7730061, and Writer Updated 965882444
 56 Writer Threads: Reader Scanned 6858639, and Writer Updated 969027391
 57 Writer Threads: Reader Scanned 6214584, and Writer Updated 959022873
 58 Writer Threads: Reader Scanned 6197473, and Writer Updated 937837532
 59 Writer Threads: Reader Scanned 5733237, and Writer Updated 950226157
 60 Writer Threads: Reader Scanned 5583241, and Writer Updated 943349357
 61 Writer Threads: Reader Scanned 5555356, and Writer Updated 945714253
 62 Writer Threads: Reader Scanned 5243925, and Writer Updated 942484252
 63 Writer Threads: Reader Scanned 4481306, and Writer Updated 911847888
 64 Writer Threads: Reader Scanned 3525962, and Writer Updated 779555861
 65 Writer Threads: Reader Scanned 4709799, and Writer Updated 943497435
 66 Writer Threads: Reader Scanned 4414723, and Writer Updated 947175154
 67 Writer Threads: Reader Scanned 4238539, and Writer Updated 943145463
 68 Writer Threads: Reader Scanned 4069108, and Writer Updated 944078296
 69 Writer Threads: Reader Scanned 3970461, and Writer Updated 892840363
 70 Writer Threads: Reader Scanned 3741784, and Writer Updated 946262397
 71 Writer Threads: Reader Scanned 3545005, and Writer Updated 952104065
 72 Writer Threads: Reader Scanned 3578069, and Writer Updated 944346495
 73 Writer Threads: Reader Scanned 3279147, and Writer Updated 948781888
 74 Writer Threads: Reader Scanned 3365131, and Writer Updated 939284511
 75 Writer Threads: Reader Scanned 3145981, and Writer Updated 947943838
 76 Writer Threads: Reader Scanned 2990689, and Writer Updated 947308066
 77 Writer Threads: Reader Scanned 3060288, and Writer Updated 948712259
 78 Writer Threads: Reader Scanned 2784657, and Writer Updated 950893298
 79 Writer Threads: Reader Scanned 2750370, and Writer Updated 952936880
 80 Writer Threads: Reader Scanned 2803418, and Writer Updated 953748582
 81 Writer Threads: Reader Scanned 2650185, and Writer Updated 952968178
 82 Writer Threads: Reader Scanned 2456785, and Writer Updated 952314730
 83 Writer Threads: Reader Scanned 2444023, and Writer Updated 955433385
 84 Writer Threads: Reader Scanned 2351109, and Writer Updated 947612030
 85 Writer Threads: Reader Scanned 1794148, and Writer Updated 878465370
 86 Writer Threads: Reader Scanned 2214108, and Writer Updated 940782054
 87 Writer Threads: Reader Scanned 2201368, and Writer Updated 953169112
 88 Writer Threads: Reader Scanned 2115997, and Writer Updated 953446905
 89 Writer Threads: Reader Scanned 2009258, and Writer Updated 957252390
 90 Writer Threads: Reader Scanned 2199612, and Writer Updated 953437903
 91 Writer Threads: Reader Scanned 2098383, and Writer Updated 953992227
 92 Writer Threads: Reader Scanned 1950916, and Writer Updated 951260448
 93 Writer Threads: Reader Scanned 1809007, and Writer Updated 955412072
 94 Writer Threads: Reader Scanned 1987441, and Writer Updated 955980553
 95 Writer Threads: Reader Scanned 1822296, and Writer Updated 951526824
 96 Writer Threads: Reader Scanned 1698398, and Writer Updated 953150551
 97 Writer Threads: Reader Scanned 1638690, and Writer Updated 949414447
 98 Writer Threads: Reader Scanned 1677356, and Writer Updated 955797091
 99 Writer Threads: Reader Scanned 1634826, and Writer Updated 955936784
100 Writer Threads: Reader Scanned 1572715, and Writer Updated 951193016

Analysis

Wait Free Snapshot # of scan by read
421894245
265848730
156527671
88741089
59496185
41844168
31798662
20903676
18242838
11473351
11276017
6535203
7542860
6987434
5651888
4658984
3860849
3320013
2962806
2182071
2172540
1958881
1748670
1443853
1294439
1180620
1247545
1111161
975700
864088
807399
728820
604773
616230
600897
437967
498008
494600
388022
413908
367197
273682
282387
278141
263854
241451
249054
218205
201488
190962
187209
171759
180444
154673
160783
147206
137073
121283
120402
118067
117842
92794
89529
99396
88702
81841
80713
85441
63072
73645
68559
61205
60988
60084
55256
53469
49462
51702
48699
44413
46248
42175
41950
38736
40322
36706
35168
37506
34218
35231
33080
32508
28342
29142
28191
29332
25448
25067
23936
22855

Wait Free Snapshot # of update by write
390159590
428975230
430287275
351531322
284543369
243730023
215794520
158887519
162071556
104956356
121953627
70935673
96351024
96471362
86671927
73681763
66937903
59162963
57301938
42184598
49077628
43060612
38506883
34265573
34159749
30931277
32325771
28669534
27271675
25141929
25408532
22505422
21786097
21462229
20826665
17933143
18341999
17016738
16061776
15332438
14327949
12804306
11797222
12388988
11997403
11700142
11202387
10543330
10290764
9943536
9587229
9073336
8923334
8592947
8380859
7878287
7504842
7144531
7035389
6800344
6483025
6060601
5778634
5833580
5657076
5592492
5407750
5266616
4788306
4978471
4732932
4576963
4484096
4452132
4254176
4164527
4021982
3975440
3847346
3735289
3636274
3435681
3466878
3354506
3275478
3214156
3147199
3050905
2949267
2941714
2907132
2845252
2511336
2749781
2707046
2623267
2555278
2491827
2423622
2318399

Wait Free Snapshot # of scan by both read and write
812053835
694823960
586814946
440272411
344039554
285574191
247593182
179791195
180314394
116429707
133229644
77470876
103893884
103458796
92323815
78340747
70798752
62482976
60264744
44366669
51250168
45019493
40255553
35709426
35454188
32111897
33573316
29780695
28247375
26006017
26215931
23234242
22390870
22078459
21427562
18371110
18840007
17511338
16449798
15746346
14695146
13077988
12079609
12667129
12261257
11941593
11451441
10761535
10492252
10134498
9774438
9245095
9103778
8747620
8541642
8025493
7641915
7265814
7155791
6918411
6600867
6153395
5868163
5932976
5745778
5674333
5488463
5352057
4851378
5052116
4801491
4638168
4545084
4512216
4309432
4217996
4071444
4027142
3896045
3779702
3682522
3477856
3508828
3393242
3315800
3250862
3182367
3088411
2983485
2976945
2940212
2877760
2539678
2778923
2735237
2652599
2580726
2516894
2447558
2341254

----------------------------------------------------

Sequential Snapshot # of scan by read
299137209
163425333
170872747
157503176
129233817
116043271
106748059
109745455
86322320
76904900
66079421
52435195
48062486
56364549
50351600
51919823
43922342
30317461
32568425
28115058
26178337
25508037
25895924
21685628
21574005
21564285
19341624
20694679
20583250
18437177
17486542
17026706
17531326
15662676
15531817
16398452
15828577
16098856
14629070
13350261
14136224
13007100
12845329
11151484
11647333
10538520
10579868
9068994
9463551
8921396
8843493
7695349
8089824
6609772
7730061
6858639
6214584
6197473
5733237
5583241
5555356
5243925
4481306
3525962
4709799
4414723
4238539
4069108
3970461
3741784
3545005
3578069
3279147
3365131
3145981
2990689
3060288
2784657
2750370
2803418
2650185
2456785
2444023
2351109
1794148
2214108
2201368
2115997
2009258
2199612
2098383
1950916
1809007
1987441
1822296
1698398
1638690
1677356
1634826
1572715

Sequential Snapshot # of update by write
278091982
309852479
722069110
910006682
781866264
938199176
1009037698
1248041878
1373736192
1541908411
1660641408
1821079823
1835326406
1819794680
1863466039
1838206029
1859724930
1824780861
1789290441
1761982995
1684280301
1647501027
1621521621
1391031213
1553297330
1507143404
1472881580
1399075738
1327116444
1294510300
1282766006
1221264390
1195677091
1174728172
1139257075
1123545655
1101471338
1053722064
1052996082
1028384857
1017618107
1015240820
990595053
992563324
996690169
980167431
977620653
967307195
947752471
961448492
949350676
949639348
956009065
892507387
965882444
969027391
959022873
937837532
950226157
943349357
945714253
942484252
911847888
779555861
943497435
947175154
943145463
944078296
892840363
946262397
952104065
944346495
948781888
939284511
947943838
947308066
948712259
950893298
952936880
953748582
952968178
952314730
955433385
947612030
878465370
940782054
953169112
953446905
957252390
953437903
953992227
951260448
955412072
955980553
951526824
953150551
949414447
955797091
955936784
951193016
